[Info  - 9:56:44 am] Initialising intelephense 1.6.3
[Info  - 9:56:44 am] Reading state from /var/www/html/firstproject/~/.vscode-root/User/workspaceStorage/c00d10cafa9e862709b175d004de6e37/bmewburn.vscode-intelephense-client/7dd776f5.
[Info  - 9:56:47 am] Initialised in 2943 ms
[Warn  - 9:56:48 am] file:///var/www/html/firstproject/vendor/fakerphp/faker/src/Faker/Provider/nl_BE/Text.php is over the maximum file size of 1000000 bytes.
[Info  - 9:56:48 am] Indexing started.
[Info  - 9:56:49 am] Indexing ended. 29 files indexed in 0s.
[Info  - 9:56:49 am] Writing state to /var/www/html/firstproject/~/.vscode-root/User/workspaceStorage/c00d10cafa9e862709b175d004de6e37/bmewburn.vscode-intelephense-client/7dd776f5.
[Info  - 9:56:51 am] Wrote state in 1.9s.
[Info  - 9:58:15 am] Indexing started.
[Info  - 9:58:15 am] Indexing ended. 1 files indexed in 0s.
[Info  - 9:58:19 am] Indexing started.
[Info  - 9:58:19 am] Indexing ended. 1 files indexed in 0s.
[Info  - 10:29:39 am] Indexing started.
[Info  - 10:29:39 am] Indexing ended. 1 files indexed in 0s.
[Info  - 10:29:44 am] Indexing started.
[Info  - 10:29:44 am] Indexing ended. 1 files indexed in 0s.
[Info  - 10:29:46 am] Indexing started.
[Info  - 10:29:46 am] Indexing ended. 1 files indexed in 0s.
[Info  - 10:29:50 am] Indexing started.
[Info  - 10:29:50 am] Indexing ended. 1 files indexed in 0s.
[Info  - 10:30:49 am] Indexing started.
[Info  - 10:30:49 am] Indexing ended. 1 files indexed in 0s.
[Info  - 10:33:30 am] Indexing started.
[Info  - 10:33:30 am] Indexing ended. 1 files indexed in 0s.
[Info  - 10:33:32 am] Indexing started.
[Info  - 10:33:33 am] Indexing ended. 1 files indexed in 0s.
[Info  - 10:34:20 am] Indexing started.
[Info  - 10:34:20 am] Indexing ended. 1 files indexed in 0s.
[Info  - 10:34:23 am] Indexing started.
[Info  - 10:34:23 am] Indexing ended. 1 files indexed in 0s.
[Info  - 10:38:52 am] Indexing started.
[Info  - 10:38:52 am] Indexing ended. 1 files indexed in 0s.
[Info  - 10:41:00 am] Indexing started.
[Info  - 10:41:00 am] Indexing ended. 1 files indexed in 0s.
[Info  - 10:41:03 am] Indexing started.
[Info  - 10:41:03 am] Indexing ended. 1 files indexed in 0s.
[Info  - 10:41:37 am] Indexing started.
[Info  - 10:41:37 am] Indexing ended. 1 files indexed in 0s.
[Info  - 10:41:40 am] Indexing started.
[Info  - 10:41:40 am] Indexing ended. 1 files indexed in 0s.
[Info  - 10:44:43 am] Indexing started.
[Info  - 10:44:43 am] Indexing ended. 1 files indexed in 0s.
[Info  - 10:45:14 am] Indexing started.
[Info  - 10:45:15 am] Indexing ended. 1 files indexed in 0s.
[Info  - 10:45:17 am] Indexing started.
[Info  - 10:45:17 am] Indexing ended. 1 files indexed in 0s.
[Info  - 10:45:21 am] Indexing started.
[Info  - 10:45:21 am] Indexing ended. 1 files indexed in 0s.
[Info  - 10:47:43 am] Indexing started.
[Info  - 10:47:43 am] Indexing ended. 1 files indexed in 0s.
[Info  - 10:47:44 am] Indexing started.
[Info  - 10:47:44 am] Indexing ended. 3 files indexed in 0s.
[Info  - 10:47:46 am] Indexing started.
[Info  - 10:47:47 am] Indexing ended. 1 files indexed in 0s.
[Info  - 10:49:02 am] Indexing started.
[Info  - 10:49:02 am] Indexing ended. 1 files indexed in 0s.
[Info  - 10:49:03 am] Indexing started.
[Info  - 10:49:03 am] Indexing ended. 4 files indexed in 0s.
[Info  - 10:49:16 am] Indexing started.
[Info  - 10:49:16 am] Indexing ended. 1 files indexed in 0s.
[Info  - 10:49:17 am] Indexing started.
[Info  - 10:49:17 am] Indexing ended. 4 files indexed in 0s.
[Info  - 10:49:20 am] Indexing started.
[Info  - 10:49:20 am] Indexing ended. 1 files indexed in 0s.
[Info  - 10:50:13 am] Indexing started.
[Info  - 10:50:14 am] Indexing ended. 1 files indexed in 0s.
[Info  - 10:50:29 am] Indexing started.
[Info  - 10:50:29 am] Indexing ended. 1 files indexed in 0s.
[Info  - 10:52:29 am] Indexing started.
[Info  - 10:52:29 am] Indexing ended. 1 files indexed in 0s.
[Info  - 10:52:29 am] Indexing started.
[Info  - 10:52:29 am] Indexing ended. 2 files indexed in 0s.
[Info  - 10:52:36 am] Indexing started.
[Info  - 10:52:36 am] Indexing ended. 1 files indexed in 0s.
[Info  - 10:55:21 am] Indexing started.
[Info  - 10:55:21 am] Indexing ended. 1 files indexed in 0s.
[Info  - 10:55:22 am] Indexing started.
[Info  - 10:55:23 am] Indexing ended. 7 files indexed in 0s.
[Info  - 10:56:14 am] Indexing started.
[Info  - 10:56:14 am] Indexing ended. 1 files indexed in 0s.
[Info  - 10:57:22 am] Indexing started.
[Info  - 10:57:22 am] Indexing ended. 1 files indexed in 0s.
[Info  - 10:57:22 am] Indexing started.
[Info  - 10:57:23 am] Indexing ended. 3 files indexed in 0s.
[Info  - 10:57:23 am] Indexing started.
[Info  - 10:57:23 am] Indexing ended. 4 files indexed in 0s.
[Info  - 10:57:28 am] Indexing started.
[Info  - 10:57:28 am] Indexing ended. 1 files indexed in 0s.
[Info  - 11:02:15 am] Indexing started.
[Info  - 11:02:15 am] Indexing ended. 1 files indexed in 0s.
[Info  - 11:02:16 am] Indexing started.
[Info  - 11:02:16 am] Indexing ended. 4 files indexed in 0s.
[Info  - 11:02:16 am] Indexing started.
[Info  - 11:02:16 am] Indexing ended. 2 files indexed in 0s.
[Info  - 11:02:19 am] Indexing started.
[Info  - 11:02:19 am] Indexing ended. 1 files indexed in 0s.
[Info  - 11:03:01 am] Indexing started.
[Info  - 11:03:01 am] Indexing ended. 1 files indexed in 0s.
[Info  - 11:03:02 am] Indexing started.
[Info  - 11:03:02 am] Indexing ended. 3 files indexed in 0s.
[Info  - 11:03:04 am] Indexing started.
[Info  - 11:03:04 am] Indexing ended. 1 files indexed in 0s.
[Info  - 11:03:55 am] Indexing started.
[Info  - 11:03:56 am] Indexing ended. 1 files indexed in 0s.
[Info  - 11:04:48 am] Indexing started.
[Info  - 11:04:48 am] Indexing ended. 1 files indexed in 0s.
[Info  - 11:04:49 am] Indexing started.
[Info  - 11:04:49 am] Indexing ended. 2 files indexed in 0s.
[Info  - 11:04:49 am] Indexing started.
[Info  - 11:04:49 am] Indexing ended. 2 files indexed in 0s.
[Info  - 11:04:53 am] Indexing started.
[Info  - 11:04:53 am] Indexing ended. 1 files indexed in 0s.
[Info  - 11:06:44 am] Indexing started.
[Info  - 11:06:45 am] Indexing ended. 1 files indexed in 0s.
[Info  - 11:06:45 am] Indexing started.
[Info  - 11:06:45 am] Indexing ended. 3 files indexed in 0s.
[Info  - 11:06:50 am] Indexing started.
[Info  - 11:06:50 am] Indexing ended. 1 files indexed in 0s.
[Info  - 11:07:06 am] Indexing started.
[Info  - 11:07:06 am] Indexing ended. 4 files indexed in 0s.
[Info  - 11:07:08 am] Indexing started.
[Info  - 11:07:08 am] Indexing ended. 1 files indexed in 0s.
[Info  - 11:07:19 am] Indexing started.
[Info  - 11:07:19 am] Indexing ended. 4 files indexed in 0s.
[Info  - 11:07:21 am] Indexing started.
[Info  - 11:07:21 am] Indexing ended. 1 files indexed in 0s.
[Info  - 11:07:33 am] Indexing started.
[Info  - 11:07:34 am] Indexing ended. 1 files indexed in 0s.
[Info  - 11:07:34 am] Indexing started.
[Info  - 11:07:35 am] Indexing ended. 5 files indexed in 0s.
[Info  - 11:07:42 am] Indexing started.
[Info  - 11:07:43 am] Indexing ended. 1 files indexed in 0s.
[Info  - 11:09:00 am] Indexing started.
[Info  - 11:09:00 am] Indexing ended. 1 files indexed in 0s.
[Info  - 11:09:01 am] Indexing started.
[Info  - 11:09:01 am] Indexing ended. 4 files indexed in 0s.
[Info  - 11:09:34 am] Indexing started.
[Info  - 11:09:35 am] Indexing ended. 1 files indexed in 0s.
[Info  - 11:13:55 am] Indexing started.
[Info  - 11:13:55 am] Indexing ended. 1 files indexed in 0s.
[Info  - 11:14:07 am] Indexing started.
[Info  - 11:14:07 am] Indexing ended. 1 files indexed in 0s.
[Info  - 11:14:18 am] Indexing started.
[Info  - 11:14:19 am] Indexing ended. 1 files indexed in 0s.
[Info  - 11:24:44 am] Indexing started.
[Info  - 11:24:44 am] Indexing ended. 1 files indexed in 0s.
[Info  - 11:27:05 am] Indexing started.
[Info  - 11:27:05 am] Indexing ended. 1 files indexed in 0s.
[Info  - 11:27:06 am] Indexing started.
[Info  - 11:27:06 am] Indexing ended. 5 files indexed in 0s.
[Info  - 11:27:10 am] Indexing started.
[Info  - 11:27:10 am] Indexing ended. 1 files indexed in 0s.
[Info  - 11:27:43 am] Indexing started.
[Info  - 11:27:44 am] Indexing ended. 1 files indexed in 0s.
[Info  - 11:27:44 am] Indexing started.
[Info  - 11:27:44 am] Indexing ended. 2 files indexed in 0s.
[Info  - 11:27:46 am] Indexing started.
[Info  - 11:27:47 am] Indexing ended. 1 files indexed in 0s.
[Info  - 11:31:45 am] Indexing started.
[Info  - 11:31:45 am] Indexing ended. 1 files indexed in 0s.
[Info  - 11:31:45 am] Indexing started.
[Info  - 11:31:45 am] Indexing ended. 1 files indexed in 0s.
[Info  - 11:31:48 am] Indexing started.
[Info  - 11:31:48 am] Indexing ended. 1 files indexed in 0s.
[Info  - 11:32:02 am] Indexing started.
[Info  - 11:32:02 am] Indexing ended. 2 files indexed in 0s.
[Info  - 11:32:05 am] Indexing started.
[Info  - 11:32:06 am] Indexing ended. 1 files indexed in 0s.
[Info  - 11:32:22 am] Indexing started.
[Info  - 11:32:22 am] Indexing ended. 3 files indexed in 0s.
[Info  - 11:32:25 am] Indexing started.
[Info  - 11:32:25 am] Indexing ended. 1 files indexed in 0s.
[Info  - 11:32:43 am] Indexing started.
[Info  - 11:32:44 am] Indexing ended. 3 files indexed in 0s.
[Info  - 11:32:46 am] Indexing started.
[Info  - 11:32:46 am] Indexing ended. 1 files indexed in 0s.
[Info  - 11:33:05 am] Indexing started.
[Info  - 11:33:06 am] Indexing ended. 4 files indexed in 0s.
[Info  - 11:33:08 am] Indexing started.
[Info  - 11:33:09 am] Indexing ended. 1 files indexed in 0s.
[Info  - 11:33:28 am] Indexing started.
[Info  - 11:33:28 am] Indexing ended. 1 files indexed in 0s.
[Info  - 11:35:19 am] Indexing started.
[Info  - 11:35:20 am] Indexing ended. 2 files indexed in 0s.
[Info  - 11:35:22 am] Indexing started.
[Info  - 11:35:23 am] Indexing ended. 5 files indexed in 0s.
[Info  - 11:47:32 am] Indexing started.
[Info  - 11:47:32 am] Indexing ended. 1 files indexed in 0s.
[Info  - 1:00:37 pm] Indexing started.
[Info  - 1:00:37 pm] Indexing ended. 1 files indexed in 0s.
[Info  - 1:02:19 pm] Indexing started.
[Info  - 1:02:19 pm] Indexing ended. 1 files indexed in 0s.
[Info  - 1:05:59 pm] Indexing started.
[Info  - 1:05:59 pm] Indexing ended. 1 files indexed in 0s.
[Info  - 1:27:32 pm] Indexing started.
[Info  - 1:27:32 pm] Indexing ended. 1 files indexed in 0s.
[Info  - 1:28:05 pm] Indexing started.
[Info  - 1:28:05 pm] Indexing ended. 1 files indexed in 0s.
[Info  - 1:31:25 pm] Indexing started.
[Info  - 1:31:25 pm] Indexing ended. 1 files indexed in 0s.
[Info  - 1:32:26 pm] Indexing started.
[Info  - 1:32:26 pm] Indexing ended. 1 files indexed in 0s.
[Info  - 1:36:39 pm] Indexing started.
[Info  - 1:36:39 pm] Indexing ended. 1 files indexed in 0s.
[Info  - 1:36:39 pm] Indexing started.
[Info  - 1:36:40 pm] Indexing ended. 3 files indexed in 0s.
[Info  - 1:36:40 pm] Indexing started.
[Info  - 1:36:40 pm] Indexing ended. 2 files indexed in 0s.
[Info  - 1:37:14 pm] Indexing started.
[Info  - 1:37:15 pm] Indexing ended. 1 files indexed in 0s.
[Info  - 1:39:04 pm] Indexing started.
[Info  - 1:39:05 pm] Indexing ended. 1 files indexed in 0s.
[Info  - 1:39:16 pm] Indexing started.
[Info  - 1:39:17 pm] Indexing ended. 5 files indexed in 0s.
[Info  - 1:39:21 pm] Indexing started.
[Info  - 1:39:21 pm] Indexing ended. 1 files indexed in 0s.
[Info  - 1:47:03 pm] Indexing started.
[Info  - 1:47:03 pm] Indexing ended. 1 files indexed in 0s.
[Info  - 2:01:08 pm] Indexing started.
[Info  - 2:01:08 pm] Indexing ended. 1 files indexed in 0s.
[Info  - 2:01:08 pm] Indexing started.
[Info  - 2:01:08 pm] Indexing ended. 1 files indexed in 0s.
[Info  - 2:01:08 pm] Indexing started.
[Info  - 2:01:09 pm] Indexing ended. 1 files indexed in 0s.
[Info  - 2:01:09 pm] Indexing started.
[Info  - 2:01:09 pm] Indexing ended. 2 files indexed in 0s.
[Info  - 2:02:38 pm] Indexing started.
[Info  - 2:02:38 pm] Indexing ended. 2 files indexed in 0s.
[Info  - 2:04:46 pm] Indexing started.
[Info  - 2:04:46 pm] Indexing ended. 1 files indexed in 0s.
[Info  - 2:05:03 pm] Indexing started.
[Info  - 2:05:03 pm] Indexing ended. 2 files indexed in 0s.
[Info  - 2:05:07 pm] Indexing started.
[Info  - 2:05:07 pm] Indexing ended. 1 files indexed in 0s.
[Info  - 2:06:22 pm] Indexing started.
[Info  - 2:06:22 pm] Indexing ended. 1 files indexed in 0s.
[Info  - 2:06:22 pm] Indexing started.
[Info  - 2:06:22 pm] Indexing ended. 1 files indexed in 0s.
[Info  - 2:06:49 pm] Indexing started.
[Info  - 2:06:49 pm] Indexing ended. 1 files indexed in 0s.
[Info  - 2:52:57 pm] Indexing started.
[Info  - 2:52:57 pm] Indexing ended. 2 files indexed in 0s.
[Info  - 2:58:37 pm] Indexing started.
[Info  - 2:58:37 pm] Indexing ended. 1 files indexed in 0s.
[Info  - 2:58:37 pm] Indexing started.
[Info  - 2:58:37 pm] Indexing ended. 1 files indexed in 0s.
[Info  - 2:58:38 pm] Indexing started.
[Info  - 2:58:38 pm] Indexing ended. 2 files indexed in 0s.
[Info  - 3:05:08 pm] Indexing started.
[Info  - 3:05:08 pm] Indexing ended. 1 files indexed in 0s.
[Info  - 3:09:46 pm] Indexing started.
[Info  - 3:09:46 pm] Indexing ended. 1 files indexed in 0s.
[Info  - 3:09:50 pm] Indexing started.
[Info  - 3:09:51 pm] Indexing ended. 2 files indexed in 0s.
[Info  - 3:12:12 pm] Indexing started.
[Info  - 3:12:12 pm] Indexing ended. 16 files indexed in 0s.
[Info  - 3:17:24 pm] Indexing started.
[Info  - 3:17:24 pm] Indexing ended. 11 files indexed in 0s.
[Info  - 3:19:26 pm] Indexing started.
[Info  - 3:19:26 pm] Indexing ended. 1 files indexed in 0s.
[Info  - 3:22:01 pm] Indexing started.
[Info  - 3:22:01 pm] Indexing ended. 1 files indexed in 0s.
[Info  - 3:25:52 pm] Indexing started.
[Info  - 3:25:52 pm] Indexing ended. 1 files indexed in 0s.
[Info  - 3:26:29 pm] Indexing started.
[Info  - 3:26:30 pm] Indexing ended. 1 files indexed in 0s.
[Info  - 3:34:24 pm] Indexing started.
[Info  - 3:34:24 pm] Indexing ended. 1 files indexed in 0s.
[Info  - 3:34:24 pm] Indexing started.
[Info  - 3:34:24 pm] Indexing ended. 3 files indexed in 0s.
[Info  - 3:34:26 pm] Indexing started.
[Info  - 3:34:27 pm] Indexing ended. 1 files indexed in 0s.
[Info  - 3:35:20 pm] Indexing started.
[Info  - 3:35:20 pm] Indexing ended. 4 files indexed in 0s.
[Info  - 3:36:04 pm] Indexing started.
[Info  - 3:36:05 pm] Indexing ended. 1 files indexed in 0s.
[Info  - 3:36:08 pm] Indexing started.
[Info  - 3:36:08 pm] Indexing ended. 1 files indexed in 0s.
[Info  - 3:37:03 pm] Indexing started.
[Info  - 3:37:03 pm] Indexing ended. 1 files indexed in 0s.
[Info  - 3:37:55 pm] Indexing started.
[Info  - 3:37:56 pm] Indexing ended. 1 files indexed in 0s.
[Info  - 3:46:53 pm] Indexing started.
[Info  - 3:46:53 pm] Indexing ended. 1 files indexed in 0s.
[Info  - 3:46:54 pm] Indexing started.
[Info  - 3:46:54 pm] Indexing ended. 4 files indexed in 0s.
[Info  - 3:46:57 pm] Indexing started.
[Info  - 3:46:57 pm] Indexing ended. 1 files indexed in 0s.
[Info  - 3:47:35 pm] Indexing started.
[Info  - 3:47:35 pm] Indexing ended. 1 files indexed in 0s.
[Info  - 3:48:19 pm] Indexing started.
[Info  - 3:48:19 pm] Indexing ended. 1 files indexed in 0s.
[Info  - 3:56:21 pm] Indexing started.
[Info  - 3:56:22 pm] Indexing ended. 1 files indexed in 0s.
[Info  - 3:57:14 pm] Indexing started.
[Info  - 3:57:14 pm] Indexing ended. 1 files indexed in 0s.
[Info  - 3:57:17 pm] Indexing started.
[Info  - 3:57:17 pm] Indexing ended. 1 files indexed in 0s.
[Info  - 3:57:21 pm] Indexing started.
[Info  - 3:57:21 pm] Indexing ended. 1 files indexed in 0s.
[Info  - 3:57:42 pm] Indexing started.
[Info  - 3:57:42 pm] Indexing ended. 1 files indexed in 0s.
[Info  - 3:57:50 pm] Indexing started.
[Info  - 3:57:51 pm] Indexing ended. 1 files indexed in 0s.
[Info  - 3:58:12 pm] Indexing started.
[Info  - 3:58:13 pm] Indexing ended. 1 files indexed in 0s.
[Info  - 3:58:14 pm] Indexing started.
[Info  - 3:58:14 pm] Indexing ended. 1 files indexed in 0s.
[Info  - 3:58:15 pm] Indexing started.
[Info  - 3:58:16 pm] Indexing ended. 1 files indexed in 0s.
[Info  - 3:58:33 pm] Indexing started.
[Info  - 3:58:33 pm] Indexing ended. 1 files indexed in 0s.
[Info  - 3:58:33 pm] Indexing started.
[Info  - 3:58:34 pm] Indexing ended. 1 files indexed in 0s.
[Info  - 3:58:38 pm] Indexing started.
[Info  - 3:58:38 pm] Indexing ended. 1 files indexed in 0s.
[Info  - 3:58:39 pm] Indexing started.
[Info  - 3:58:39 pm] Indexing ended. 1 files indexed in 0s.
[Info  - 3:58:44 pm] Indexing started.
[Info  - 3:58:44 pm] Indexing ended. 1 files indexed in 0s.
[Info  - 3:58:53 pm] Indexing started.
[Info  - 3:58:54 pm] Indexing ended. 1 files indexed in 0s.
[Info  - 3:59:07 pm] Indexing started.
[Info  - 3:59:07 pm] Indexing ended. 1 files indexed in 0s.
[Info  - 3:59:11 pm] Indexing started.
[Info  - 3:59:11 pm] Indexing ended. 1 files indexed in 0s.
[Info  - 3:59:13 pm] Indexing started.
[Info  - 3:59:13 pm] Indexing ended. 1 files indexed in 0s.
[Info  - 3:59:32 pm] Indexing started.
[Info  - 3:59:32 pm] Indexing ended. 1 files indexed in 0s.
[Info  - 3:59:33 pm] Indexing started.
[Info  - 3:59:33 pm] Indexing ended. 1 files indexed in 0s.
[Info  - 3:59:38 pm] Indexing started.
[Info  - 3:59:38 pm] Indexing ended. 1 files indexed in 0s.
[Info  - 4:00:25 pm] Indexing started.
[Info  - 4:00:26 pm] Indexing ended. 1 files indexed in 0s.
[Info  - 4:00:27 pm] Indexing started.
[Info  - 4:00:27 pm] Indexing ended. 1 files indexed in 0s.
[Info  - 4:00:40 pm] Indexing started.
[Info  - 4:00:41 pm] Indexing ended. 1 files indexed in 0s.
[Info  - 4:00:43 pm] Indexing started.
[Info  - 4:00:43 pm] Indexing ended. 1 files indexed in 0s.
[Info  - 4:01:16 pm] Indexing started.
[Info  - 4:01:16 pm] Indexing ended. 1 files indexed in 0s.
[Info  - 4:01:16 pm] Indexing started.
[Info  - 4:01:16 pm] Indexing ended. 1 files indexed in 0s.
[Info  - 4:01:18 pm] Indexing started.
[Info  - 4:01:18 pm] Indexing ended. 1 files indexed in 0s.
[Info  - 4:01:21 pm] Indexing started.
[Info  - 4:01:22 pm] Indexing ended. 1 files indexed in 0s.
[Info  - 4:01:29 pm] Indexing started.
[Info  - 4:01:29 pm] Indexing ended. 1 files indexed in 0s.
[Info  - 4:01:50 pm] Indexing started.
[Info  - 4:01:51 pm] Indexing ended. 1 files indexed in 0s.
[Info  - 4:02:02 pm] Indexing started.
[Info  - 4:02:02 pm] Indexing ended. 1 files indexed in 0s.
[Info  - 4:02:04 pm] Indexing started.
[Info  - 4:02:05 pm] Indexing ended. 1 files indexed in 0s.
[Info  - 4:02:09 pm] Indexing started.
[Info  - 4:02:09 pm] Indexing ended. 1 files indexed in 0s.
[Info  - 4:02:10 pm] Indexing started.
[Info  - 4:02:10 pm] Indexing ended. 1 files indexed in 0s.
[Info  - 4:02:13 pm] Indexing started.
[Info  - 4:02:13 pm] Indexing ended. 1 files indexed in 0s.
[Info  - 4:02:42 pm] Indexing started.
[Info  - 4:02:42 pm] Indexing ended. 1 files indexed in 0s.
[Info  - 4:03:36 pm] Indexing started.
[Info  - 4:03:36 pm] Indexing ended. 1 files indexed in 0s.
[Info  - 4:03:58 pm] Indexing started.
[Info  - 4:03:58 pm] Indexing ended. 1 files indexed in 0s.
[Info  - 4:04:02 pm] Indexing started.
[Info  - 4:04:02 pm] Indexing ended. 1 files indexed in 0s.
[Info  - 4:04:11 pm] Indexing started.
[Info  - 4:04:11 pm] Indexing ended. 1 files indexed in 0s.
[Info  - 4:04:13 pm] Indexing started.
[Info  - 4:04:13 pm] Indexing ended. 1 files indexed in 0s.
[Info  - 4:04:18 pm] Indexing started.
[Info  - 4:04:18 pm] Indexing ended. 1 files indexed in 0s.
[Info  - 4:04:19 pm] Indexing started.
[Info  - 4:04:19 pm] Indexing ended. 1 files indexed in 0s.
[Info  - 4:04:21 pm] Indexing started.
[Info  - 4:04:21 pm] Indexing ended. 1 files indexed in 0s.
[Info  - 4:04:42 pm] Indexing started.
[Info  - 4:04:42 pm] Indexing ended. 1 files indexed in 0s.
[Info  - 4:07:05 pm] Indexing started.
[Info  - 4:07:05 pm] Indexing ended. 1 files indexed in 0s.
[Info  - 4:07:17 pm] Indexing started.
[Info  - 4:07:17 pm] Indexing ended. 1 files indexed in 0s.
[Info  - 4:07:22 pm] Indexing started.
[Info  - 4:07:22 pm] Indexing ended. 1 files indexed in 0s.
[Info  - 4:07:25 pm] Indexing started.
[Info  - 4:07:25 pm] Indexing ended. 2 files indexed in 0s.
[Info  - 4:07:54 pm] Indexing started.
[Info  - 4:07:54 pm] Indexing ended. 1 files indexed in 0s.
[Info  - 4:07:57 pm] Indexing started.
[Info  - 4:07:57 pm] Indexing ended. 1 files indexed in 0s.
[Info  - 4:11:31 pm] Indexing started.
[Info  - 4:11:31 pm] Indexing ended. 1 files indexed in 0s.
[Info  - 4:11:39 pm] Indexing started.
[Info  - 4:11:39 pm] Indexing ended. 1 files indexed in 0s.
[Info  - 4:12:43 pm] Indexing started.
[Info  - 4:12:43 pm] Indexing ended. 1 files indexed in 0s.
[Info  - 4:12:51 pm] Indexing started.
[Info  - 4:12:51 pm] Indexing ended. 1 files indexed in 0s.
[Info  - 4:12:57 pm] Indexing started.
[Info  - 4:12:57 pm] Indexing ended. 1 files indexed in 0s.
[Info  - 4:13:10 pm] Indexing started.
[Info  - 4:13:11 pm] Indexing ended. 1 files indexed in 0s.
[Info  - 4:13:11 pm] Indexing started.
[Info  - 4:13:12 pm] Indexing ended. 1 files indexed in 0s.
[Info  - 4:13:17 pm] Indexing started.
[Info  - 4:13:17 pm] Indexing ended. 1 files indexed in 0s.
[Info  - 4:13:22 pm] Indexing started.
[Info  - 4:13:22 pm] Indexing ended. 1 files indexed in 0s.
[Info  - 4:13:25 pm] Indexing started.
[Info  - 4:13:25 pm] Indexing ended. 1 files indexed in 0s.
[Info  - 4:13:32 pm] Indexing started.
[Info  - 4:13:33 pm] Indexing ended. 1 files indexed in 0s.
[Info  - 4:13:52 pm] Indexing started.
[Info  - 4:13:52 pm] Indexing ended. 1 files indexed in 0s.
[Info  - 4:14:10 pm] Indexing started.
[Info  - 4:14:10 pm] Indexing ended. 1 files indexed in 0s.
[Info  - 4:14:57 pm] Indexing started.
[Info  - 4:14:57 pm] Indexing ended. 1 files indexed in 0s.
[Info  - 4:15:16 pm] Indexing started.
[Info  - 4:15:16 pm] Indexing ended. 1 files indexed in 0s.
[Info  - 4:15:39 pm] Indexing started.
[Info  - 4:15:39 pm] Indexing ended. 1 files indexed in 0s.
[Info  - 4:15:42 pm] Indexing started.
[Info  - 4:15:42 pm] Indexing ended. 1 files indexed in 0s.
[Info  - 4:19:52 pm] Indexing started.
[Info  - 4:19:52 pm] Indexing ended. 1 files indexed in 0s.
[Info  - 4:19:52 pm] Indexing started.
[Info  - 4:19:53 pm] Indexing ended. 3 files indexed in 0s.
[Info  - 4:20:04 pm] Indexing started.
[Info  - 4:20:05 pm] Indexing ended. 1 files indexed in 0s.
[Info  - 4:20:05 pm] Indexing started.
[Info  - 4:20:06 pm] Indexing ended. 5 files indexed in 0s.
[Info  - 4:24:27 pm] Indexing started.
[Info  - 4:24:27 pm] Indexing ended. 1 files indexed in 0s.
[Info  - 4:24:28 pm] Indexing started.
[Info  - 4:24:28 pm] Indexing ended. 4 files indexed in 0s.
[Info  - 4:24:31 pm] Indexing started.
[Info  - 4:24:31 pm] Indexing ended. 1 files indexed in 0s.
[Info  - 4:24:50 pm] Indexing started.
[Info  - 4:24:50 pm] Indexing ended. 1 files indexed in 0s.
[Info  - 4:24:51 pm] Indexing started.
[Info  - 4:24:51 pm] Indexing ended. 3 files indexed in 0s.
[Info  - 4:24:54 pm] Indexing started.
[Info  - 4:24:54 pm] Indexing ended. 1 files indexed in 0s.
[Info  - 4:31:08 pm] Indexing started.
[Info  - 4:31:09 pm] Indexing ended. 1 files indexed in 0s.
[Info  - 4:31:13 pm] Indexing started.
[Info  - 4:31:14 pm] Indexing ended. 1 files indexed in 0s.
[Info  - 4:31:50 pm] Indexing started.
[Info  - 4:31:50 pm] Indexing ended. 1 files indexed in 0s.
[Info  - 4:31:51 pm] Indexing started.
[Info  - 4:31:51 pm] Indexing ended. 4 files indexed in 0s.
[Info  - 4:31:54 pm] Indexing started.
[Info  - 4:31:54 pm] Indexing ended. 1 files indexed in 0s.
[Info  - 4:32:06 pm] Indexing started.
[Info  - 4:32:06 pm] Indexing ended. 1 files indexed in 0s.
[Info  - 4:32:06 pm] Indexing started.
[Info  - 4:32:06 pm] Indexing ended. 2 files indexed in 0s.
[Info  - 4:32:10 pm] Indexing started.
[Info  - 4:32:10 pm] Indexing ended. 1 files indexed in 0s.
[Info  - 4:32:21 pm] Indexing started.
[Info  - 4:32:21 pm] Indexing ended. 1 files indexed in 0s.
[Info  - 4:32:32 pm] Indexing started.
[Info  - 4:32:33 pm] Indexing ended. 1 files indexed in 0s.
[Info  - 4:33:38 pm] Indexing started.
[Info  - 4:33:38 pm] Indexing ended. 1 files indexed in 0s.
[Info  - 4:34:07 pm] Indexing started.
[Info  - 4:34:07 pm] Indexing ended. 1 files indexed in 0s.
[Info  - 4:39:44 pm] Indexing started.
[Info  - 4:39:45 pm] Indexing ended. 1 files indexed in 0s.
[Info  - 5:01:07 pm] Indexing started.
[Info  - 5:01:07 pm] Indexing ended. 1 files indexed in 0s.
[Info  - 5:01:24 pm] Indexing started.
[Info  - 5:01:24 pm] Indexing ended. 1 files indexed in 0s.
[Info  - 5:01:37 pm] Indexing started.
[Info  - 5:01:38 pm] Indexing ended. 1 files indexed in 0s.
[Info  - 5:02:12 pm] Indexing started.
[Info  - 5:02:12 pm] Indexing ended. 1 files indexed in 0s.
[Info  - 5:02:15 pm] Indexing started.
[Info  - 5:02:15 pm] Indexing ended. 1 files indexed in 0s.
[Info  - 5:02:20 pm] Indexing started.
[Info  - 5:02:20 pm] Indexing ended. 1 files indexed in 0s.
[Info  - 5:02:24 pm] Indexing started.
[Info  - 5:02:25 pm] Indexing ended. 1 files indexed in 0s.
[Info  - 5:02:31 pm] Indexing started.
[Info  - 5:02:31 pm] Indexing ended. 1 files indexed in 0s.
[Info  - 5:02:36 pm] Indexing started.
[Info  - 5:02:36 pm] Indexing ended. 1 files indexed in 0s.
[Info  - 5:02:46 pm] Indexing started.
[Info  - 5:02:46 pm] Indexing ended. 1 files indexed in 0s.
[Info  - 5:03:06 pm] Indexing started.
[Info  - 5:03:06 pm] Indexing ended. 1 files indexed in 0s.
[Info  - 5:03:17 pm] Indexing started.
[Info  - 5:03:18 pm] Indexing ended. 1 files indexed in 0s.
[Info  - 5:04:55 pm] Indexing started.
[Info  - 5:04:55 pm] Indexing ended. 1 files indexed in 0s.
[Info  - 5:05:45 pm] Indexing started.
[Info  - 5:05:45 pm] Indexing ended. 1 files indexed in 0s.
[Info  - 5:07:10 pm] Indexing started.
[Info  - 5:07:10 pm] Indexing ended. 1 files indexed in 0s.
[Info  - 5:07:18 pm] Indexing started.
[Info  - 5:07:19 pm] Indexing ended. 1 files indexed in 0s.
[Info  - 5:07:39 pm] Indexing started.
[Info  - 5:07:39 pm] Indexing ended. 1 files indexed in 0s.
[Info  - 5:07:42 pm] Indexing started.
[Info  - 5:07:43 pm] Indexing ended. 1 files indexed in 0s.
[Info  - 5:07:58 pm] Indexing started.
[Info  - 5:07:58 pm] Indexing ended. 1 files indexed in 0s.
[Info  - 5:08:55 pm] Indexing started.
[Info  - 5:08:55 pm] Indexing ended. 1 files indexed in 0s.
[Info  - 5:09:35 pm] Indexing started.
[Info  - 5:09:35 pm] Indexing ended. 1 files indexed in 0s.
[Info  - 5:09:44 pm] Indexing started.
[Info  - 5:09:44 pm] Indexing ended. 1 files indexed in 0s.
[Info  - 5:09:46 pm] Indexing started.
[Info  - 5:09:46 pm] Indexing ended. 1 files indexed in 0s.
[Info  - 5:09:48 pm] Indexing started.
[Info  - 5:09:49 pm] Indexing ended. 1 files indexed in 0s.
[Info  - 5:10:21 pm] Indexing started.
[Info  - 5:10:21 pm] Indexing ended. 1 files indexed in 0s.
[Info  - 5:10:26 pm] Indexing started.
[Info  - 5:10:26 pm] Indexing ended. 1 files indexed in 0s.
[Info  - 5:24:51 pm] Indexing started.
[Info  - 5:24:52 pm] Indexing ended. 1 files indexed in 0s.
[Info  - 5:24:52 pm] Indexing started.
[Info  - 5:24:52 pm] Indexing ended. 1 files indexed in 0s.
[Info  - 5:25:38 pm] Indexing started.
[Info  - 5:25:38 pm] Indexing ended. 1 files indexed in 0s.
[Info  - 5:25:46 pm] Indexing started.
[Info  - 5:25:46 pm] Indexing ended. 1 files indexed in 0s.
[Info  - 5:29:09 pm] Indexing started.
[Info  - 5:29:09 pm] Indexing ended. 1 files indexed in 0s.
[Info  - 5:30:20 pm] Indexing started.
[Info  - 5:30:20 pm] Indexing ended. 1 files indexed in 0s.
[Info  - 5:36:01 pm] Indexing started.
[Info  - 5:36:02 pm] Indexing ended. 1 files indexed in 0s.
[Info  - 5:36:08 pm] Indexing started.
[Info  - 5:36:09 pm] Indexing ended. 1 files indexed in 0s.
[Info  - 5:36:25 pm] Indexing started.
[Info  - 5:36:25 pm] Indexing ended. 1 files indexed in 0s.
[Info  - 5:37:36 pm] Indexing started.
[Info  - 5:37:36 pm] Indexing ended. 1 files indexed in 0s.
[Info  - 5:37:39 pm] Indexing started.
[Info  - 5:37:39 pm] Indexing ended. 1 files indexed in 0s.
[Info  - 5:42:23 pm] Indexing started.
[Info  - 5:42:23 pm] Indexing ended. 1 files indexed in 0s.
[Info  - 5:42:55 pm] Indexing started.
[Info  - 5:42:55 pm] Indexing ended. 1 files indexed in 0s.
[Info  - 5:43:00 pm] Indexing started.
[Info  - 5:43:01 pm] Indexing ended. 1 files indexed in 0s.
[Info  - 5:43:47 pm] Indexing started.
[Info  - 5:43:47 pm] Indexing ended. 1 files indexed in 0s.
[Info  - 5:45:51 pm] Indexing started.
[Info  - 5:45:51 pm] Indexing ended. 1 files indexed in 0s.
[Info  - 5:45:52 pm] Indexing started.
[Info  - 5:45:52 pm] Indexing ended. 1 files indexed in 0s.
[Info  - 5:45:55 pm] Indexing started.
[Info  - 5:45:55 pm] Indexing ended. 1 files indexed in 0s.
[Info  - 5:46:43 pm] Indexing started.
[Info  - 5:46:43 pm] Indexing ended. 1 files indexed in 0s.
[Info  - 5:46:45 pm] Indexing started.
[Info  - 5:46:45 pm] Indexing ended. 1 files indexed in 0s.
[Info  - 5:47:07 pm] Indexing started.
[Info  - 5:47:07 pm] Indexing ended. 1 files indexed in 0s.
[Info  - 5:47:12 pm] Indexing started.
[Info  - 5:47:12 pm] Indexing ended. 1 files indexed in 0s.
[Info  - 5:49:15 pm] Indexing started.
[Info  - 5:49:15 pm] Indexing ended. 1 files indexed in 0s.
[Info  - 5:49:18 pm] Indexing started.
[Info  - 5:49:18 pm] Indexing ended. 1 files indexed in 0s.
[Info  - 5:51:45 pm] Indexing started.
[Info  - 5:51:45 pm] Indexing ended. 1 files indexed in 0s.
[Info  - 5:52:01 pm] Indexing started.
[Info  - 5:52:01 pm] Indexing ended. 1 files indexed in 0s.
[Info  - 5:52:02 pm] Indexing started.
[Info  - 5:52:02 pm] Indexing ended. 3 files indexed in 0s.
[Info  - 5:52:02 pm] Indexing started.
[Info  - 5:52:02 pm] Indexing ended. 2 files indexed in 0s.
[Info  - 5:52:06 pm] Indexing started.
[Info  - 5:52:06 pm] Indexing ended. 1 files indexed in 0s.
[Info  - 5:52:12 pm] Indexing started.
[Info  - 5:52:12 pm] Indexing ended. 1 files indexed in 0s.
[Info  - 5:53:27 pm] Indexing started.
[Info  - 5:53:27 pm] Indexing ended. 1 files indexed in 0s.
[Info  - 5:56:55 pm] Indexing started.
[Info  - 5:56:55 pm] Indexing ended. 1 files indexed in 0s.
[Info  - 5:56:55 pm] Indexing started.
[Info  - 5:56:56 pm] Indexing ended. 2 files indexed in 0s.
[Info  - 5:57:02 pm] Indexing started.
[Info  - 5:57:02 pm] Indexing ended. 1 files indexed in 0s.
[Info  - 5:57:27 pm] Indexing started.
[Info  - 5:57:27 pm] Indexing ended. 1 files indexed in 0s.
[Info  - 5:57:29 pm] Indexing started.
[Info  - 5:57:29 pm] Indexing ended. 1 files indexed in 0s.
[Info  - 5:59:04 pm] Indexing started.
[Info  - 5:59:04 pm] Indexing ended. 1 files indexed in 0s.
[Info  - 5:59:04 pm] Indexing started.
[Info  - 5:59:04 pm] Indexing ended. 2 files indexed in 0s.
[Info  - 5:59:06 pm] Indexing started.
[Info  - 5:59:07 pm] Indexing ended. 1 files indexed in 0s.
[Info  - 5:59:27 pm] Indexing started.
[Info  - 5:59:28 pm] Indexing ended. 1 files indexed in 0s.
[Info  - 6:00:17 pm] Indexing started.
[Info  - 6:00:17 pm] Indexing ended. 1 files indexed in 0s.
[Info  - 6:00:51 pm] Indexing started.
[Info  - 6:00:51 pm] Indexing ended. 1 files indexed in 0s.
[Info  - 6:00:52 pm] Indexing started.
[Info  - 6:00:52 pm] Indexing ended. 5 files indexed in 0s.
[Info  - 6:00:53 pm] Indexing started.
[Info  - 6:00:53 pm] Indexing ended. 2 files indexed in 0s.
[Info  - 6:00:57 pm] Indexing started.
[Info  - 6:00:57 pm] Indexing ended. 1 files indexed in 0s.
[Info  - 6:01:22 pm] Indexing started.
[Info  - 6:01:23 pm] Indexing ended. 1 files indexed in 0s.
[Info  - 6:01:23 pm] Indexing started.
[Info  - 6:01:24 pm] Indexing ended. 4 files indexed in 0s.
[Info  - 6:01:26 pm] Indexing started.
[Info  - 6:01:26 pm] Indexing ended. 1 files indexed in 0s.
[Info  - 6:01:38 pm] Indexing started.
[Info  - 6:01:38 pm] Indexing ended. 1 files indexed in 0s.
[Info  - 6:01:40 pm] Indexing started.
[Info  - 6:01:40 pm] Indexing ended. 1 files indexed in 0s.
[Info  - 6:01:46 pm] Indexing started.
[Info  - 6:01:46 pm] Indexing ended. 1 files indexed in 0s.
[Info  - 6:01:47 pm] Indexing started.
[Info  - 6:01:47 pm] Indexing ended. 4 files indexed in 0s.
[Info  - 6:01:49 pm] Indexing started.
[Info  - 6:01:49 pm] Indexing ended. 1 files indexed in 0s.
[Info  - 6:03:43 pm] Indexing started.
[Info  - 6:03:44 pm] Indexing ended. 1 files indexed in 0s.
[Info  - 6:07:22 pm] Indexing started.
[Info  - 6:07:22 pm] Indexing ended. 1 files indexed in 0s.
[Info  - 6:07:23 pm] Indexing started.
[Info  - 6:07:24 pm] Indexing ended. 7 files indexed in 0s.
[Info  - 6:07:53 pm] Indexing started.
[Info  - 6:07:53 pm] Indexing ended. 1 files indexed in 0s.
[Info  - 6:09:09 pm] Indexing started.
[Info  - 6:09:09 pm] Indexing ended. 1 files indexed in 0s.
[Info  - 6:09:16 pm] Indexing started.
[Info  - 6:09:16 pm] Indexing ended. 1 files indexed in 0s.
[Info  - 6:11:32 pm] Indexing started.
[Info  - 6:11:32 pm] Indexing ended. 1 files indexed in 0s.
[Info  - 6:14:31 pm] Indexing started.
[Info  - 6:14:32 pm] Indexing ended. 1 files indexed in 0s.
[Info  - 6:15:21 pm] Indexing started.
[Info  - 6:15:21 pm] Indexing ended. 1 files indexed in 0s.
[Info  - 6:16:29 pm] Indexing started.
[Info  - 6:16:29 pm] Indexing ended. 1 files indexed in 0s.
[Info  - 6:16:42 pm] Indexing started.
[Info  - 6:16:42 pm] Indexing ended. 1 files indexed in 0s.
[Info  - 6:21:02 pm] Indexing started.
[Info  - 6:21:02 pm] Indexing ended. 1 files indexed in 0s.
[Info  - 6:21:03 pm] Indexing started.
[Info  - 6:21:03 pm] Indexing ended. 3 files indexed in 0s.
[Info  - 6:21:36 pm] Indexing started.
[Info  - 6:21:37 pm] Indexing ended. 1 files indexed in 0s.
[Info  - 6:27:10 pm] Indexing started.
[Info  - 6:27:10 pm] Indexing ended. 1 files indexed in 0s.
